<?xml version="1.0" encoding="utf-8"?>
<!-- Generator: Adobe Illustrator 19.2.1, SVG Export Plug-In . SVG Version: 6.00 Build 0)  -->
<svg version="1.1" id="Capa_1" xmlns="http://www.w3.org/2000/svg" xmlns:xlink="http://www.w3.org/1999/xlink" x="0px" y="0px"
	 viewBox="0 0 100 100" style="enable-background:new 0 0 100 100;" xml:space="preserve">
<style type="text/css">
	.st0{fill:#211915;}
	.st1{fill:none;stroke:#211915;stroke-width:9;stroke-linecap:round;stroke-linejoin:round;stroke-miterlimit:10;}
</style>
<g>
	<path class="st0" d="M50,7c23.7,0,43,19.3,43,43S73.8,93,50,93S7,73.7,7,50S26.3,7,50,7 M50,0C22.4,0,0,22.4,0,50s22.4,50,50,50
		s50-22.4,50-50S77.7,0,50,0L50,0z"/>
</g>
<g>
	<line class="st1" x1="73.5" y1="50" x2="24" y2="50"/>
	<g>
		<polyline class="st1" points="48.3,71.9 24,50 48.3,28.4 		"/>
	</g>
</g>
</svg>
